{
    "categories":[
        {
            "name": "Women Dress",
            "subcategory":[
                "Jens & t-shorts",
                "Wedding & Event",
                "Watches"
            ]
        },
        {
            "name": "Makeup",
            "subcategory":[
                "Essence",
                "Shop beauty",
                "Nivea"
            ]
        },
        {
            "name": "Laptob",
            "subcategory":[
                "Hp",
                "Lenovo",
                "Dell"
            ]
        },
        {
            "name": "Usb",
            "subcategory":[
                "San Disk",
                "Kingston",
                "Lexar"
            ]
        }
    ]
}